module modernc.org/qbecc

go 1.21.4

require (
	modernc.org/cc/v4 v4.16.0
	modernc.org/opt v0.1.3
)

require (
	github.com/remyoudompheng/bigfft v0.0.0-20230129092748-24d4a6f8daec // indirect
	modernc.org/mathutil v1.6.0 // indirect
	modernc.org/sortutil v1.2.0 // indirect
	modernc.org/strutil v1.2.0 // indirect
	modernc.org/token v1.1.0 // indirect
)
